{
  "type": "tab",
  "id": "428c9775.bd7368",
  "label": "Medium",
  "flow": [
    {
      "id": "f98c44a4.0673b8",
      "type": "xml",
      "z": "428c9775.bd7368",
      "name": "",
      "attr": "",
      "chr": "",
      "x": 446,
      "y": 170,
      "wires": [
        [
          "c4ead571.3b1528"
        ]
      ]
    },
    {
      "id": "9476bcb4.6b894",
      "type": "http request",
      "z": "428c9775.bd7368",
      "name": "Node RED",
      "method": "GET",
      "ret": "txt",
      "url": "https://medium.com/feed/tag/node%20red/",
      "x": 297,
      "y": 170,
      "wires": [
        [
          "f98c44a4.0673b8"
        ]
      ]
    },
    {
      "id": "535bcc8c.aca434",
      "type": "inject",
      "z": "428c9775.bd7368",
      "name": "Start",
      "topic": "",
      "payload": "",
      "payloadType": "date",
      "repeat": "",
      "crontab": "00 06 * * *",
      "once": false,
      "x": 151,
      "y": 170,
      "wires": [
        [
          "9476bcb4.6b894",
          "6ed71f14.9128e"
        ]
      ]
    },
    {
      "id": "c4ead571.3b1528",
      "type": "function",
      "z": "428c9775.bd7368",
      "name": "i=0, l=length, items=items",
      "func": "msg.i = 0;\nmsg.l = msg.payload.rss.channel[0].item.length;\nmsg.items = msg.payload.rss.channel[0].item;\n\nreturn msg;",
      "outputs": 1,
      "noerr": 0,
      "x": 409,
      "y": 260,
      "wires": [
        [
          "f7d327a9.082cd8"
        ]
      ]
    },
    {
      "id": "7b87fb5b.847804",
      "type": "debug",
      "z": "428c9775.bd7368",
      "name": "End",
      "active": false,
      "console": "false",
      "complete": "payload",
      "x": 813,
      "y": 304.66664123535156,
      "wires": []
    },
    {
      "id": "f7d327a9.082cd8",
      "type": "subflow:e0c6dc43.1f392",
      "z": "428c9775.bd7368",
      "name": "Loop Items Array",
      "x": 641.5,
      "y": 259.60113525390625,
      "wires": [
        [
          "483c443a.b7c3bc"
        ],
        [
          "7b87fb5b.847804"
        ]
      ]
    },
    {
      "id": "483c443a.b7c3bc",
      "type": "function",
      "z": "428c9775.bd7368",
      "name": "",
      "func": "var yesterday = new Date((new Date()).valueOf() - 1000*60*60*24);\nvar pubDate = new Date(msg.payload.pubDate[0]);\n\nif (pubDate > yesterday) {\n    \n    msg.payload = {\n        html: msg.payload.description[0],\n        subject: msg.payload.title[0]\n    };\n\n    return msg;\n}",
      "outputs": 1,
      "noerr": 0,
      "x": 819,
      "y": 209,
      "wires": [
        [
          "6dae0c48.9251f4"
        ]
      ]
    },
    {
      "id": "6dae0c48.9251f4",
      "type": "mandrill-send",
      "z": "428c9775.bd7368",
      "name": "",
      "api_key": "qXkX37-1JLhbbRPPKODWMg",
      "from": "admin@redconnect.io",
      "to": "stephen.keep@redant.com",
      "subject": "",
      "html": "",
      "x": 986,
      "y": 209,
      "wires": []
    },
    {
      "id": "c22b81ce.3dd48",
      "type": "comment",
      "z": "428c9775.bd7368",
      "name": "Check Medium for Articles on Node-RED",
      "info": "",
      "x": 224,
      "y": 65,
      "wires": []
    },
    {
      "id": "6ed71f14.9128e",
      "type": "http request",
      "z": "428c9775.bd7368",
      "name": "IoT",
      "method": "GET",
      "ret": "txt",
      "url": "https://medium.com/feed/tag/iot/",
      "x": 299,
      "y": 122,
      "wires": [
        [
          "f98c44a4.0673b8"
        ]
      ]
    }
  ]
}